﻿{
  "Group": "Widgets",
  "FriendlyName": "Catalog Slider",
  "SystemName": "Widgets.CatalogueSlider",
  "Version": "1.50",
  "SupportedVersions": [ "4.40" ],
  "Author": "nopStation team",
  "DisplayOrder": 1,
  "FileName": "Nop.Plugin.Widgets.CatalogueSlider.dll",
  "Description": "This plugin allows you to change the contents of main page slider"
}